-- Merging decision tree log ---
manifest
ADDED from /users/zafran/flutter/flutter/.pub-cache/hosted/pub.dartlang.org/sms_autofill-2.0.0/android/src/main/AndroidManifest.xml:1:1-3:12
INJECTED from /users/zafran/flutter/flutter/.pub-cache/hosted/pub.dartlang.org/sms_autofill-2.0.0/android/src/main/AndroidManifest.xml:1:1-3:12
INJECTED from /users/zafran/flutter/flutter/.pub-cache/hosted/pub.dartlang.org/sms_autofill-2.0.0/android/src/main/AndroidManifest.xml:1:1-3:12
	package
		ADDED from /users/zafran/flutter/flutter/.pub-cache/hosted/pub.dartlang.org/sms_autofill-2.0.0/android/src/main/AndroidManifest.xml:2:3-36
		INJECTED from /users/zafran/flutter/flutter/.pub-cache/hosted/pub.dartlang.org/sms_autofill-2.0.0/android/src/main/AndroidManifest.xml
		INJECTED from /users/zafran/flutter/flutter/.pub-cache/hosted/pub.dartlang.org/sms_autofill-2.0.0/android/src/main/AndroidManifest.xml
	xmlns:android
		ADDED from /users/zafran/flutter/flutter/.pub-cache/hosted/pub.dartlang.org/sms_autofill-2.0.0/android/src/main/AndroidManifest.xml:1:11-69
uses-sdk
INJECTED from /users/zafran/flutter/flutter/.pub-cache/hosted/pub.dartlang.org/sms_autofill-2.0.0/android/src/main/AndroidManifest.xml reason: use-sdk injection requested
INJECTED from /users/zafran/flutter/flutter/.pub-cache/hosted/pub.dartlang.org/sms_autofill-2.0.0/android/src/main/AndroidManifest.xml
INJECTED from /users/zafran/flutter/flutter/.pub-cache/hosted/pub.dartlang.org/sms_autofill-2.0.0/android/src/main/AndroidManifest.xml
	android:minSdkVersion
		INJECTED from /users/zafran/flutter/flutter/.pub-cache/hosted/pub.dartlang.org/sms_autofill-2.0.0/android/src/main/AndroidManifest.xml
		ADDED from /users/zafran/flutter/flutter/.pub-cache/hosted/pub.dartlang.org/sms_autofill-2.0.0/android/src/main/AndroidManifest.xml
		INJECTED from /users/zafran/flutter/flutter/.pub-cache/hosted/pub.dartlang.org/sms_autofill-2.0.0/android/src/main/AndroidManifest.xml
